<<<<<<< HEAD
{"filter":false,"title":"swearWords.txt","tooltip":"/public/swearWords.txt","undoManager":{"mark":0,"position":0,"stack":[[{"group":"doc","deltas":[{"action":"insertText","range":{"start":{"row":0,"column":0},"end":{"row":0,"column":4}},"text":"anal"},{"action":"insertText","range":{"start":{"row":0,"column":4},"end":{"row":1,"column":0}},"text":"\n"},{"action":"insertLines","range":{"start":{"row":1,"column":0},"end":{"row":76,"column":0}},"lines":["anus","arse","ass","ballsack","balls","bastard","bitch","biatch","bloody","blowjob","blow job","bollock","bollok","boner","boob","bugger","bum","butt","buttplug","clitoris","cock","coon","crap","cunt","damn","dick","dildo","dyke","fag","feck","fellate","fellatio","felching","fuck","f u c k","fudgepacker","fudge packer","flange","Goddamn","God damn","hell","homo","jerk","jizz","knobend","knob end","labia","lmao","lmfao","muff","nigger","nigga","omg","penis","piss","poop","prick","pube","pussy","queer","scrotum","sex","shit","s hit","sh1t","slut","smegma","spunk","tit","tosser","turd","twat","vagina","wank","whore"]},{"action":"insertText","range":{"start":{"row":76,"column":0},"end":{"row":76,"column":3}},"text":"wtf"}]}]]},"ace":{"folds":[],"scrolltop":0,"scrollleft":0,"selection":{"start":{"row":5,"column":5},"end":{"row":5,"column":5},"isBackwards":false},"options":{"guessTabSize":true,"useWrapMode":false,"wrapToView":true},"firstLineState":{"row":27,"state":"start","mode":"ace/mode/text"}},"timestamp":1414935786963,"hash":"b94babcbd6f859f6996c962f466b068dc9880aaa"}
=======
{"filter":false,"title":"swearWords.txt","tooltip":"/public/swearWords.txt","undoManager":{"mark":0,"position":0,"stack":[[{"group":"doc","deltas":[{"action":"insertText","range":{"start":{"row":0,"column":0},"end":{"row":0,"column":4}},"text":"anal"},{"action":"insertText","range":{"start":{"row":0,"column":4},"end":{"row":1,"column":0}},"text":"\n"},{"action":"insertLines","range":{"start":{"row":1,"column":0},"end":{"row":76,"column":0}},"lines":["anus","arse","ass","ballsack","balls","bastard","bitch","biatch","bloody","blowjob","blow job","bollock","bollok","boner","boob","bugger","bum","butt","buttplug","clitoris","cock","coon","crap","cunt","damn","dick","dildo","dyke","fag","feck","fellate","fellatio","felching","fuck","f u c k","fudgepacker","fudge packer","flange","Goddamn","God damn","hell","homo","jerk","jizz","knobend","knob end","labia","lmao","lmfao","muff","nigger","nigga","omg","penis","piss","poop","prick","pube","pussy","queer","scrotum","sex","shit","s hit","sh1t","slut","smegma","spunk","tit","tosser","turd","twat","vagina","wank","whore"]},{"action":"insertText","range":{"start":{"row":76,"column":0},"end":{"row":76,"column":3}},"text":"wtf"}]}]]},"ace":{"folds":[],"scrolltop":0,"scrollleft":0,"selection":{"start":{"row":12,"column":7},"end":{"row":12,"column":7},"isBackwards":false},"options":{"guessTabSize":true,"useWrapMode":false,"wrapToView":true},"firstLineState":{"row":34,"state":"start","mode":"ace/mode/text"}},"timestamp":1414883631257,"hash":"b94babcbd6f859f6996c962f466b068dc9880aaa"}
>>>>>>> Naloga_2_5
